Audi
A6
2.0 40 TDI S tronic
3100000
Седан
Германия
5
1720
535
73
530
DFBA
Дизельное
190
audi1.jpg
Audi
A5
2.0 TFSI MT
1888800
Открытый кузов
Германия
4
1655
500
65
320
CDNB
Бензин АИ-95
180
audi2.jpg
Audi
Q3 Sportback
1.4 35 TFSI S tronic
2526000
SUV
Венгрия
5
1570
500
58
530
BWK
Бензин АИ-95
150
audi3.jpg
Audi
S6
4.0 TFSI quattro S tronic
5670000
Универсал
Германия
5
2035
500
75
565
CEUC
Бензин АИ-95
450
audi4.jpg
Audi
TT
1.8 TFSI MT
2305000
Открытый кузов
Германия
2
1375
245
50
280
CJSA
Бензин АИ-95
180
audi5.jpg
Audi
A8
3.0 45 TDI quattro tiptronic L Business
7820000
Седан
Германия
5
2075
625
82
505
V-образный
Дизельное топливо
249
audi6.jpg
BMW
X1
sDrive 18i SAT Avantgarde
2420000
SUV
Германия
5
1430
595
51
505
B38A15M0
Бензин АИ-95
140
bmw1.jpg
BMW
X2
XsDrive 18i DCT Advantage 2
2400000
SUV
Германия
5
1490
515
51
470
B38A15M1
Бензин АИ-95
140
bmw2.jpg
BMW
X3
xDrive 20d MT
1935000
SUV
Германия
5
1715
575
67
550
N47D20
Дизельное топливо
184
bmw3.jpg
BMW
X4
xDrive 20d MT
3140000
SUV
Германия
5
1815
505
67
500
B47D20
Дизельное топливо
190
bmw4.jpg
BMW
X5
xDrive 30d AT M Sport Plus
5700000
SUV
Россия
5
2185
675
80
645
B57D30
Дизельное топливо
249
bmw5.jpg
BMW
X6
xDrive 30d AT Business Plus
5550000
SUV
США
5
2185
675
83
580
B57D30
Дизельное топливо
249
bmw6.jpg
Lamborghini
Aventador
6.5 AMT LP700-4 Roadster
24595305
Открытый кузов
Италия
2
1625
0
90
0
V-образный
Бензин АИ-98
700
lamborghini1.jpg
Lamborghini
Gallardo
LP550-2 5.2 MT
20321467
Купе
Италия
2
1380
0
90
0
V-образный
Бензин АИ-98
550
lamborghini2.jpg
Lamborghini
Huracan
5.2 AMT LP 580-2 Spyder
21678523
Открытый кузов
Италия
2
1509
0
80
150
V-образный, 10-цилиндровый
Бензин АИ-98
580
lamborghini3.jpg
Lamborghini
Urus
4.0 AT
26593674
SUV
Италия
5
2200
0
75
616
V-образный, 8-цилиндровый
Бензин АИ-98
650
lamborghini4.jpg